{
  "files": {
    "main.css": "/static/css/main.537b1316.css",
    "main.js": "/static/js/main.b7221848.js",
    "static/js/261.5b19a6c6.chunk.js": "/static/js/261.5b19a6c6.chunk.js",
    "static/js/324.a9d9292a.chunk.js": "/static/js/324.a9d9292a.chunk.js",
    "static/js/573.fdfb45cb.chunk.js": "/static/js/573.fdfb45cb.chunk.js",
    "static/js/762.c75328fd.chunk.js": "/static/js/762.c75328fd.chunk.js",
    "static/js/522.7de51ff6.chunk.js": "/static/js/522.7de51ff6.chunk.js",
    "static/js/756.221e85e2.chunk.js": "/static/js/756.221e85e2.chunk.js",
    "static/js/860.bd298381.chunk.js": "/static/js/860.bd298381.chunk.js",
    "static/js/982.61d6cec1.chunk.js": "/static/js/982.61d6cec1.chunk.js",
    "static/media/logo-final.png": "/static/media/logo-final.29bb64a2c32880e6a738.png",
    "static/media/slick.svg": "/static/media/slick.2630a3e3eab21c607e21.svg",
    "static/media/slick.eot": "/static/media/slick.a4e97f5a2a64f0ab1323.eot",
    "static/media/slick.ttf": "/static/media/slick.c94f7671dcc99dce43e2.ttf",
    "static/media/slick.woff": "/static/media/slick.295183786cd8a1389865.woff",
    "index.html": "/index.html"
  },
  "entrypoints": [
    "static/css/main.537b1316.css",
    "static/js/main.b7221848.js"
  ]
}